<?xml version="1.0" encoding="UTF-8" standalone="no"?>
<!-- Created with Inkscape (http://www.inkscape.org/) -->

<svg
   width="21.166674mm"
   height="23.812511mm"
   viewBox="0 0 21.166674 23.812511"
   version="1.1"
   id="svg1"
   inkscape:version="1.3.2 (091e20ef0f, 2023-11-25, custom)"
   sodipodi:docname="logo_small.svg"
   xmlns:inkscape="http://www.inkscape.org/namespaces/inkscape"
   xmlns:sodipodi="http://sodipodi.sourceforge.net/DTD/sodipodi-0.dtd"
   xmlns="http://www.w3.org/2000/svg"
   xmlns:svg="http://www.w3.org/2000/svg">
  <sodipodi:namedview
     id="namedview1"
     pagecolor="#ffffff"
     bordercolor="#666666"
     borderopacity="1.0"
     inkscape:showpageshadow="2"
     inkscape:pageopacity="0.0"
     inkscape:pagecheckerboard="0"
     inkscape:deskcolor="#d1d1d1"
     inkscape:document-units="mm"
     showgrid="false"
     inkscape:zoom="2.8472754"
     inkscape:cx="76.740031"
     inkscape:cy="128.19273"
     inkscape:window-width="2560"
     inkscape:window-height="1376"
     inkscape:window-x="0"
     inkscape:window-y="0"
     inkscape:window-maximized="1"
     inkscape:current-layer="layer1">
    <inkscape:grid
       id="grid1"
       units="px"
       originx="-79.375001"
       originy="-78.052075"
       spacingx="0.26458333"
       spacingy="0.26458334"
       empcolor="#3f3fff"
       empopacity="0.25098039"
       color="#3f3fff"
       opacity="0.1254902"
       empspacing="5"
       dotted="true"
       gridanglex="30"
       gridanglez="30"
       visible="false" />
  </sodipodi:namedview>
  <defs
     id="defs1" />
  <g
     inkscape:label="Ebene 1"
     inkscape:groupmode="layer"
     id="layer1"
     transform="translate(-79.374996,-78.052079)">
    <path
       style="fill:#d40000;fill-rule:evenodd;stroke:none;stroke-width:0.264583px;stroke-linecap:butt;stroke-linejoin:miter;stroke-opacity:1"
       d="m 79.374996,87.312506 v 14.552084 h 3.96875 l 1.32292,-1.32292 v -7.937504 z"
       id="path2-2"
       sodipodi:nodetypes="cccccc" />
    <path
       style="fill:#d40000;fill-rule:evenodd;stroke:none;stroke-width:0.264583px;stroke-linecap:butt;stroke-linejoin:miter;stroke-opacity:1"
       d="m 84.666668,89.958329 v -9.26041 l -2.64583,-2.64584 h -2.64584 v 6.61459 z"
       id="path1"
       sodipodi:nodetypes="cccccc" />
    <path
       style="fill:#d40000;fill-rule:evenodd;stroke:none;stroke-width:0.264583px;stroke-linecap:butt;stroke-linejoin:miter;stroke-opacity:1"
       d="m 87.312494,87.312506 v 14.552084 h 3.96875 l 1.32292,-1.32292 v -7.937504 z"
       id="path2"
       sodipodi:nodetypes="cccccc" />
    <path
       style="fill:#d40000;fill-rule:evenodd;stroke:none;stroke-width:0.264583px;stroke-linecap:butt;stroke-linejoin:miter;stroke-opacity:1"
       d="m 92.604166,89.958329 v -9.26041 l -2.64583,-2.64584 h -2.64584 v 6.61459 z"
       id="path5"
       sodipodi:nodetypes="cccccc" />
    <path
       style="fill:#d40000;fill-rule:evenodd;stroke:none;stroke-width:0.264583px;stroke-linecap:butt;stroke-linejoin:miter;stroke-opacity:1"
       d="m 95.249994,87.312506 v 14.552084 h 3.96875 l 1.322916,-1.32292 v -7.937504 z"
       id="path6"
       sodipodi:nodetypes="cccccc" />
    <path
       style="fill:#d40000;fill-rule:evenodd;stroke:none;stroke-width:0.264583px;stroke-linecap:butt;stroke-linejoin:miter;stroke-opacity:1"
       d="m 100.54167,89.958329 v -9.26041 l -2.645834,-2.64584 h -2.64584 v 6.61459 z"
       id="path9"
       sodipodi:nodetypes="cccccc" />
  </g>
</svg>
